{
	"id": "221cfced-7b62-4929-be1c-f2dba8660313",
	"name": "Production",
	"values": [
		{
			"key": "baseUrl",
			"value": "http://production.eba-avb5jmyk.us-east-1.elasticbeanstalk.com",
			"enabled": true
		}
	],
	"_postman_variable_scope": "environment",
	"_postman_exported_at": "2021-06-22T11:13:46.669Z",
	"_postman_exported_using": "Postman/8.6.2"
}